%YAML 1.1
%TAG !u! tag:unity3d.com,2011:
--- !u!1 &1385269805103335977
GameObject:
  m_ObjectHideFlags: 0
  m_CorrespondingSourceObject: {fileID: 0}
  m_PrefabInstance: {fileID: 0}
  m_PrefabAsset: {fileID: 0}
  serializedVersion: 6
  m_Component:
  - component: {fileID: 1385269805103568393}
  - component: {fileID: 1385269805114605513}
  m_Layer: 0
  m_Name: PoolBoss
  m_TagString: Untagged
  m_Icon: {fileID: 0}
  m_NavMeshLayer: 0
  m_StaticEditorFlags: 0
  m_IsActive: 1
--- !u!4 &1385269805103568393
Transform:
  m_ObjectHideFlags: 0
  m_CorrespondingSourceObject: {fileID: 0}
  m_PrefabInstance: {fileID: 0}
  m_PrefabAsset: {fileID: 0}
  m_GameObject: {fileID: 1385269805103335977}
  m_LocalRotation: {x: 0, y: 0, z: 0, w: 1}
  m_LocalPosition: {x: 71.952385, y: 0, z: 293.73053}
  m_LocalScale: {x: 1, y: 1, z: 1}
  m_Children: []
  m_Father: {fileID: 0}
  m_RootOrder: 0
  m_LocalEulerAnglesHint: {x: 0, y: 0, z: 0}
--- !u!114 &1385269805114605513
MonoBehaviour:
  m_ObjectHideFlags: 0
  m_CorrespondingSourceObject: {fileID: 0}
  m_PrefabInstance: {fileID: 0}
  m_PrefabAsset: {fileID: 0}
  m_GameObject: {fileID: 1385269805103335977}
  m_Enabled: 1
  m_EditorHideFlags: 0
  m_Script: {fileID: 11500000, guid: 7d9002c033b7d254fa980031296a4c30, type: 3}
  m_Name: 
  m_EditorClassIdentifier: 
  poolItems:
  - prefabSource: 0
    prefabTransform: {fileID: 974460941788551507, guid: 4fc5728158fb46042902a5e680b3db8e,
      type: 3}
    gameObject: {fileID: 0}
    instancesToPreload: 1
    isExpanded: 1
    logMessages: 0
    allowInstantiateMore: 1
    enableNavMeshAgentOnSpawn: 0
    delayNavMeshEnableByFrames: 1
    itemHardLimit: 20
    allowRecycle: 0
    categoryName: Platform
    isTemporary: 0
  - prefabSource: 0
    prefabTransform: {fileID: 974460941788551507, guid: 65279831e3c1bde43af21995e66a7f12,
      type: 3}
    gameObject: {fileID: 0}
    instancesToPreload: 1
    isExpanded: 1
    logMessages: 0
    allowInstantiateMore: 1
    enableNavMeshAgentOnSpawn: 0
    delayNavMeshEnableByFrames: 1
    itemHardLimit: 20
    allowRecycle: 0
    categoryName: Platform
    isTemporary: 0
  - prefabSource: 0
    prefabTransform: {fileID: 974460941788551507, guid: f84df40d501fffc498f4e65c12a0e8b2,
      type: 3}
    gameObject: {fileID: 0}
    instancesToPreload: 1
    isExpanded: 1
    logMessages: 0
    allowInstantiateMore: 1
    enableNavMeshAgentOnSpawn: 0
    delayNavMeshEnableByFrames: 1
    itemHardLimit: 20
    allowRecycle: 0
    categoryName: Platform
    isTemporary: 0
  - prefabSource: 0
    prefabTransform: {fileID: 974460941788551507, guid: 96737653947095f45ad472cd769d3429,
      type: 3}
    gameObject: {fileID: 0}
    instancesToPreload: 1
    isExpanded: 1
    logMessages: 0
    allowInstantiateMore: 1
    enableNavMeshAgentOnSpawn: 0
    delayNavMeshEnableByFrames: 1
    itemHardLimit: 20
    allowRecycle: 0
    categoryName: Platform
    isTemporary: 0
  - prefabSource: 0
    prefabTransform: {fileID: 974460941788551507, guid: fe831bebf54445f4b85aa693984dd56e,
      type: 3}
    gameObject: {fileID: 0}
    instancesToPreload: 1
    isExpanded: 1
    logMessages: 0
    allowInstantiateMore: 1
    enableNavMeshAgentOnSpawn: 0
    delayNavMeshEnableByFrames: 1
    itemHardLimit: 20
    allowRecycle: 0
    categoryName: Platform
    isTemporary: 0
  - prefabSource: 0
    prefabTransform: {fileID: 974460941788551507, guid: 76465e2cf3867bf4187a66f6825dd842,
      type: 3}
    gameObject: {fileID: 0}
    instancesToPreload: 1
    isExpanded: 1
    logMessages: 0
    allowInstantiateMore: 1
    enableNavMeshAgentOnSpawn: 0
    delayNavMeshEnableByFrames: 1
    itemHardLimit: 20
    allowRecycle: 0
    categoryName: Platform
    isTemporary: 0
  - prefabSource: 0
    prefabTransform: {fileID: 974460941788551507, guid: 5578cd01f0e4f8144b11faed08b13693,
      type: 3}
    gameObject: {fileID: 0}
    instancesToPreload: 1
    isExpanded: 1
    logMessages: 0
    allowInstantiateMore: 1
    enableNavMeshAgentOnSpawn: 0
    delayNavMeshEnableByFrames: 1
    itemHardLimit: 20
    allowRecycle: 0
    categoryName: Platform
    isTemporary: 0
  - prefabSource: 0
    prefabTransform: {fileID: 974460941788551507, guid: 36e3db0cc01f0ff4982d9d9e3ad47f95,
      type: 3}
    gameObject: {fileID: 0}
    instancesToPreload: 1
    isExpanded: 1
    logMessages: 0
    allowInstantiateMore: 1
    enableNavMeshAgentOnSpawn: 0
    delayNavMeshEnableByFrames: 1
    itemHardLimit: 20
    allowRecycle: 0
    categoryName: Platform
    isTemporary: 0
  - prefabSource: 0
    prefabTransform: {fileID: 974460941788551507, guid: c6b456542fbd29f4aa18b79f4e56adb7,
      type: 3}
    gameObject: {fileID: 0}
    instancesToPreload: 1
    isExpanded: 1
    logMessages: 0
    allowInstantiateMore: 1
    enableNavMeshAgentOnSpawn: 0
    delayNavMeshEnableByFrames: 1
    itemHardLimit: 20
    allowRecycle: 0
    categoryName: Platform
    isTemporary: 0
  - prefabSource: 0
    prefabTransform: {fileID: 974460941788551507, guid: adf6810874579674e856e77b675094b7,
      type: 3}
    gameObject: {fileID: 0}
    instancesToPreload: 1
    isExpanded: 1
    logMessages: 0
    allowInstantiateMore: 1
    enableNavMeshAgentOnSpawn: 0
    delayNavMeshEnableByFrames: 1
    itemHardLimit: 20
    allowRecycle: 0
    categoryName: Platform
    isTemporary: 0
  - prefabSource: 0
    prefabTransform: {fileID: 974460941788551507, guid: 9489456100ca0f54197384e4bc508f99,
      type: 3}
    gameObject: {fileID: 0}
    instancesToPreload: 1
    isExpanded: 1
    logMessages: 0
    allowInstantiateMore: 1
    enableNavMeshAgentOnSpawn: 0
    delayNavMeshEnableByFrames: 1
    itemHardLimit: 20
    allowRecycle: 0
    categoryName: Platform
    isTemporary: 0
  - prefabSource: 0
    prefabTransform: {fileID: 8392880598241093286, guid: dc1f0f709cb7f414491b5581ef33e359,
      type: 3}
    gameObject: {fileID: 0}
    instancesToPreload: 1
    isExpanded: 1
    logMessages: 0
    allowInstantiateMore: 0
    enableNavMeshAgentOnSpawn: 0
    delayNavMeshEnableByFrames: 1
    itemHardLimit: 10
    allowRecycle: 0
    categoryName: Character
    isTemporary: 0
  - prefabSource: 0
    prefabTransform: {fileID: 700703671270424801, guid: 9c1647979b0dfac449c3b522f01e5e2a,
      type: 3}
    gameObject: {fileID: 0}
    instancesToPreload: 1
    isExpanded: 1
    logMessages: 0
    allowInstantiateMore: 0
    enableNavMeshAgentOnSpawn: 0
    delayNavMeshEnableByFrames: 1
    itemHardLimit: 10
    allowRecycle: 0
    categoryName: Character
    isTemporary: 0
  - prefabSource: 0
    prefabTransform: {fileID: 8576329238772830277, guid: e96aff542bbe5f8429b2a04c28067434,
      type: 3}
    gameObject: {fileID: 0}
    instancesToPreload: 1
    isExpanded: 1
    logMessages: 0
    allowInstantiateMore: 1
    enableNavMeshAgentOnSpawn: 0
    delayNavMeshEnableByFrames: 1
    itemHardLimit: 20
    allowRecycle: 0
    categoryName: Platform
    isTemporary: 0
  - prefabSource: 0
    prefabTransform: {fileID: 6125663626299945024, guid: 9df63bda7547ebe4aa77a9ddcdde78d8,
      type: 3}
    gameObject: {fileID: 0}
    instancesToPreload: 1
    isExpanded: 1
    logMessages: 0
    allowInstantiateMore: 1
    enableNavMeshAgentOnSpawn: 0
    delayNavMeshEnableByFrames: 1
    itemHardLimit: 20
    allowRecycle: 0
    categoryName: Platform
    isTemporary: 0
  - prefabSource: 0
    prefabTransform: {fileID: 4117396901160052624, guid: 5775bb220a6eae848b4707245d5905ca,
      type: 3}
    gameObject: {fileID: 0}
    instancesToPreload: 1
    isExpanded: 1
    logMessages: 0
    allowInstantiateMore: 1
    enableNavMeshAgentOnSpawn: 0
    delayNavMeshEnableByFrames: 1
    itemHardLimit: 20
    allowRecycle: 0
    categoryName: Platform
    isTemporary: 0
  - prefabSource: 0
    prefabTransform: {fileID: 5065153848701523757, guid: b7c15d57fe1280b42a40bfa56978ce87,
      type: 3}
    gameObject: {fileID: 0}
    instancesToPreload: 1
    isExpanded: 1
    logMessages: 0
    allowInstantiateMore: 1
    enableNavMeshAgentOnSpawn: 0
    delayNavMeshEnableByFrames: 1
    itemHardLimit: 20
    allowRecycle: 0
    categoryName: Platform
    isTemporary: 0
  - prefabSource: 0
    prefabTransform: {fileID: 8213689190184756373, guid: 21322f0e47f3ec240bca0228f4d97356,
      type: 3}
    gameObject: {fileID: 0}
    instancesToPreload: 1
    isExpanded: 1
    logMessages: 0
    allowInstantiateMore: 1
    enableNavMeshAgentOnSpawn: 0
    delayNavMeshEnableByFrames: 1
    itemHardLimit: 20
    allowRecycle: 0
    categoryName: Item
    isTemporary: 0
  - prefabSource: 0
    prefabTransform: {fileID: 1773809100485706521, guid: a28df25c09c18f4489dfeabfe3374953,
      type: 3}
    gameObject: {fileID: 0}
    instancesToPreload: 1
    isExpanded: 1
    logMessages: 0
    allowInstantiateMore: 0
    enableNavMeshAgentOnSpawn: 0
    delayNavMeshEnableByFrames: 1
    itemHardLimit: 10
    allowRecycle: 0
    categoryName: Map
    isTemporary: 0
  - prefabSource: 0
    prefabTransform: {fileID: 1969668704780986485, guid: 811e80cc358a21845941a99e8c2f687f,
      type: 3}
    gameObject: {fileID: 0}
    instancesToPreload: 1
    isExpanded: 1
    logMessages: 0
    allowInstantiateMore: 0
    enableNavMeshAgentOnSpawn: 0
    delayNavMeshEnableByFrames: 1
    itemHardLimit: 10
    allowRecycle: 0
    categoryName: Map
    isTemporary: 0
  - prefabSource: 0
    prefabTransform: {fileID: 5598617807221551892, guid: 50b6f5401727bde449cf9d3e0413d9b9,
      type: 3}
    gameObject: {fileID: 0}
    instancesToPreload: 1
    isExpanded: 1
    logMessages: 0
    allowInstantiateMore: 0
    enableNavMeshAgentOnSpawn: 0
    delayNavMeshEnableByFrames: 1
    itemHardLimit: 10
    allowRecycle: 0
    categoryName: Map
    isTemporary: 0
  - prefabSource: 0
    prefabTransform: {fileID: 3065312458019734841, guid: 72fdeb90ea8805442a5bed11b03bde51,
      type: 3}
    gameObject: {fileID: 0}
    instancesToPreload: 1
    isExpanded: 1
    logMessages: 0
    allowInstantiateMore: 0
    enableNavMeshAgentOnSpawn: 0
    delayNavMeshEnableByFrames: 1
    itemHardLimit: 10
    allowRecycle: 0
    categoryName: Map
    isTemporary: 0
  - prefabSource: 0
    prefabTransform: {fileID: 5976575516931475070, guid: 617b5a3c50bb9d64599f39ce09b7ea90,
      type: 3}
    gameObject: {fileID: 0}
    instancesToPreload: 1
    isExpanded: 1
    logMessages: 0
    allowInstantiateMore: 0
    enableNavMeshAgentOnSpawn: 0
    delayNavMeshEnableByFrames: 1
    itemHardLimit: 10
    allowRecycle: 0
    categoryName: Map
    isTemporary: 0
  - prefabSource: 0
    prefabTransform: {fileID: 288897855593971526, guid: 461afade25f85e34bb422851530034f6,
      type: 3}
    gameObject: {fileID: 0}
    instancesToPreload: 1
    isExpanded: 1
    logMessages: 0
    allowInstantiateMore: 0
    enableNavMeshAgentOnSpawn: 0
    delayNavMeshEnableByFrames: 1
    itemHardLimit: 10
    allowRecycle: 0
    categoryName: Map
    isTemporary: 0
  - prefabSource: 0
    prefabTransform: {fileID: 8101893349943349300, guid: 5aec46bcd4a8e5f4eb94368942bec94d,
      type: 3}
    gameObject: {fileID: 0}
    instancesToPreload: 1
    isExpanded: 1
    logMessages: 0
    allowInstantiateMore: 0
    enableNavMeshAgentOnSpawn: 0
    delayNavMeshEnableByFrames: 1
    itemHardLimit: 10
    allowRecycle: 0
    categoryName: Map
    isTemporary: 0
  - prefabSource: 0
    prefabTransform: {fileID: 1983107404446722152, guid: 706c8bccfa4a0924b9fd38a88326160e,
      type: 3}
    gameObject: {fileID: 0}
    instancesToPreload: 1
    isExpanded: 1
    logMessages: 0
    allowInstantiateMore: 0
    enableNavMeshAgentOnSpawn: 0
    delayNavMeshEnableByFrames: 1
    itemHardLimit: 10
    allowRecycle: 0
    categoryName: Map
    isTemporary: 0
  - prefabSource: 0
    prefabTransform: {fileID: 8928116768261239845, guid: e622b1d11f1a9a74dbe34d37e7d073d7,
      type: 3}
    gameObject: {fileID: 0}
    instancesToPreload: 1
    isExpanded: 1
    logMessages: 0
    allowInstantiateMore: 0
    enableNavMeshAgentOnSpawn: 0
    delayNavMeshEnableByFrames: 1
    itemHardLimit: 10
    allowRecycle: 0
    categoryName: Map
    isTemporary: 0
  - prefabSource: 0
    prefabTransform: {fileID: 4369773424961164204, guid: 3ffefeb41e65a724983c90277f7ed344,
      type: 3}
    gameObject: {fileID: 0}
    instancesToPreload: 1
    isExpanded: 1
    logMessages: 0
    allowInstantiateMore: 0
    enableNavMeshAgentOnSpawn: 0
    delayNavMeshEnableByFrames: 1
    itemHardLimit: 10
    allowRecycle: 0
    categoryName: Map
    isTemporary: 0
  - prefabSource: 0
    prefabTransform: {fileID: 8317411678409382348, guid: cdea4f09c81906d4cb11b33b05c5eb3c,
      type: 3}
    gameObject: {fileID: 0}
    instancesToPreload: 1
    isExpanded: 1
    logMessages: 0
    allowInstantiateMore: 0
    enableNavMeshAgentOnSpawn: 0
    delayNavMeshEnableByFrames: 1
    itemHardLimit: 10
    allowRecycle: 0
    categoryName: Map
    isTemporary: 0
  - prefabSource: 0
    prefabTransform: {fileID: 1382807275349258520, guid: c3c7480ace6e2ed4083a8d7a4ee7211f,
      type: 3}
    gameObject: {fileID: 0}
    instancesToPreload: 1
    isExpanded: 1
    logMessages: 0
    allowInstantiateMore: 0
    enableNavMeshAgentOnSpawn: 0
    delayNavMeshEnableByFrames: 1
    itemHardLimit: 10
    allowRecycle: 0
    categoryName: Map
    isTemporary: 0
  - prefabSource: 0
    prefabTransform: {fileID: 2276816537920334036, guid: decfc22894dc3fc448575f11fe4774a0,
      type: 3}
    gameObject: {fileID: 0}
    instancesToPreload: 1
    isExpanded: 1
    logMessages: 0
    allowInstantiateMore: 0
    enableNavMeshAgentOnSpawn: 0
    delayNavMeshEnableByFrames: 1
    itemHardLimit: 10
    allowRecycle: 0
    categoryName: Map
    isTemporary: 0
  - prefabSource: 0
    prefabTransform: {fileID: 2565194233461748625, guid: 991dfbffbd89e9d498bc848352420f79,
      type: 3}
    gameObject: {fileID: 0}
    instancesToPreload: 1
    isExpanded: 1
    logMessages: 0
    allowInstantiateMore: 0
    enableNavMeshAgentOnSpawn: 0
    delayNavMeshEnableByFrames: 1
    itemHardLimit: 10
    allowRecycle: 0
    categoryName: Map
    isTemporary: 0
  - prefabSource: 0
    prefabTransform: {fileID: 6140042125159402116, guid: 916c3ed39b8cb5347bc153e3c4e91ecb,
      type: 3}
    gameObject: {fileID: 0}
    instancesToPreload: 1
    isExpanded: 1
    logMessages: 0
    allowInstantiateMore: 0
    enableNavMeshAgentOnSpawn: 0
    delayNavMeshEnableByFrames: 1
    itemHardLimit: 10
    allowRecycle: 0
    categoryName: Map
    isTemporary: 0
  - prefabSource: 0
    prefabTransform: {fileID: 6600752016520520079, guid: 9b26871adb3bb0843a4d7456f1bc1e8d,
      type: 3}
    gameObject: {fileID: 0}
    instancesToPreload: 1
    isExpanded: 1
    logMessages: 0
    allowInstantiateMore: 0
    enableNavMeshAgentOnSpawn: 0
    delayNavMeshEnableByFrames: 1
    itemHardLimit: 10
    allowRecycle: 0
    categoryName: Map
    isTemporary: 0
  - prefabSource: 0
    prefabTransform: {fileID: 8031586478400934614, guid: fb840b7645650c146ad4d049a699570c,
      type: 3}
    gameObject: {fileID: 0}
    instancesToPreload: 1
    isExpanded: 1
    logMessages: 0
    allowInstantiateMore: 0
    enableNavMeshAgentOnSpawn: 0
    delayNavMeshEnableByFrames: 1
    itemHardLimit: 10
    allowRecycle: 0
    categoryName: Map
    isTemporary: 0
  - prefabSource: 0
    prefabTransform: {fileID: 1233847068436229193, guid: 6795f1fb2616be047aa2eec125d29561,
      type: 3}
    gameObject: {fileID: 0}
    instancesToPreload: 1
    isExpanded: 1
    logMessages: 0
    allowInstantiateMore: 0
    enableNavMeshAgentOnSpawn: 0
    delayNavMeshEnableByFrames: 1
    itemHardLimit: 10
    allowRecycle: 0
    categoryName: Map
    isTemporary: 0
  - prefabSource: 0
    prefabTransform: {fileID: 6009894896121180959, guid: 306a5aefa94823a46961ca01fd0c7bbd,
      type: 3}
    gameObject: {fileID: 0}
    instancesToPreload: 1
    isExpanded: 1
    logMessages: 0
    allowInstantiateMore: 0
    enableNavMeshAgentOnSpawn: 0
    delayNavMeshEnableByFrames: 1
    itemHardLimit: 10
    allowRecycle: 0
    categoryName: Map
    isTemporary: 0
  - prefabSource: 0
    prefabTransform: {fileID: 8336520533343060984, guid: 2f5364acb32104c47adbb5748828db86,
      type: 3}
    gameObject: {fileID: 0}
    instancesToPreload: 1
    isExpanded: 1
    logMessages: 0
    allowInstantiateMore: 0
    enableNavMeshAgentOnSpawn: 0
    delayNavMeshEnableByFrames: 1
    itemHardLimit: 10
    allowRecycle: 0
    categoryName: Map
    isTemporary: 0
  - prefabSource: 0
    prefabTransform: {fileID: 7500513425402626135, guid: 8d31a36d36d0f4240851e848a88bd130,
      type: 3}
    gameObject: {fileID: 0}
    instancesToPreload: 1
    isExpanded: 1
    logMessages: 0
    allowInstantiateMore: 0
    enableNavMeshAgentOnSpawn: 0
    delayNavMeshEnableByFrames: 1
    itemHardLimit: 10
    allowRecycle: 0
    categoryName: Map
    isTemporary: 0
  - prefabSource: 0
    prefabTransform: {fileID: 4534898772288108158, guid: 932bf1066b057ff4f8c61cb1e4f2b671,
      type: 3}
    gameObject: {fileID: 0}
    instancesToPreload: 1
    isExpanded: 1
    logMessages: 0
    allowInstantiateMore: 0
    enableNavMeshAgentOnSpawn: 0
    delayNavMeshEnableByFrames: 1
    itemHardLimit: 10
    allowRecycle: 0
    categoryName: Map
    isTemporary: 0
  - prefabSource: 0
    prefabTransform: {fileID: 2218865619397642334, guid: fc3b9b958a4cd244fa4445a408712d2d,
      type: 3}
    gameObject: {fileID: 0}
    instancesToPreload: 1
    isExpanded: 1
    logMessages: 0
    allowInstantiateMore: 0
    enableNavMeshAgentOnSpawn: 0
    delayNavMeshEnableByFrames: 1
    itemHardLimit: 10
    allowRecycle: 0
    categoryName: Map
    isTemporary: 0
  - prefabSource: 0
    prefabTransform: {fileID: 8306253414433543883, guid: d486272b52069594ba4d25c104465a2a,
      type: 3}
    gameObject: {fileID: 0}
    instancesToPreload: 1
    isExpanded: 1
    logMessages: 0
    allowInstantiateMore: 0
    enableNavMeshAgentOnSpawn: 0
    delayNavMeshEnableByFrames: 1
    itemHardLimit: 10
    allowRecycle: 0
    categoryName: Map
    isTemporary: 0
  - prefabSource: 0
    prefabTransform: {fileID: 5101695525834598337, guid: cc2373b16ae728c4891ce7e330230f66,
      type: 3}
    gameObject: {fileID: 0}
    instancesToPreload: 1
    isExpanded: 1
    logMessages: 0
    allowInstantiateMore: 0
    enableNavMeshAgentOnSpawn: 0
    delayNavMeshEnableByFrames: 1
    itemHardLimit: 10
    allowRecycle: 0
    categoryName: Map
    isTemporary: 0
  - prefabSource: 0
    prefabTransform: {fileID: 88244020134880697, guid: 9be8f9e7ca865944f821cec01edbaf56,
      type: 3}
    gameObject: {fileID: 0}
    instancesToPreload: 1
    isExpanded: 1
    logMessages: 0
    allowInstantiateMore: 0
    enableNavMeshAgentOnSpawn: 0
    delayNavMeshEnableByFrames: 1
    itemHardLimit: 10
    allowRecycle: 0
    categoryName: Map
    isTemporary: 0
  - prefabSource: 0
    prefabTransform: {fileID: 5966798574183672975, guid: 47509d7304d7e454b98a0dd0415e22f0,
      type: 3}
    gameObject: {fileID: 0}
    instancesToPreload: 1
    isExpanded: 1
    logMessages: 0
    allowInstantiateMore: 0
    enableNavMeshAgentOnSpawn: 0
    delayNavMeshEnableByFrames: 1
    itemHardLimit: 10
    allowRecycle: 0
    categoryName: Map
    isTemporary: 0
  - prefabSource: 0
    prefabTransform: {fileID: 6349464170397177450, guid: 898fd93a5e9711d4a9b4ddca25efcbf8,
      type: 3}
    gameObject: {fileID: 0}
    instancesToPreload: 1
    isExpanded: 1
    logMessages: 0
    allowInstantiateMore: 0
    enableNavMeshAgentOnSpawn: 0
    delayNavMeshEnableByFrames: 1
    itemHardLimit: 10
    allowRecycle: 0
    categoryName: Map
    isTemporary: 0
  - prefabSource: 0
    prefabTransform: {fileID: 1668970333303993385, guid: ffc4025e68e4609438e5dde04441b737,
      type: 3}
    gameObject: {fileID: 0}
    instancesToPreload: 1
    isExpanded: 1
    logMessages: 0
    allowInstantiateMore: 0
    enableNavMeshAgentOnSpawn: 0
    delayNavMeshEnableByFrames: 1
    itemHardLimit: 10
    allowRecycle: 0
    categoryName: Map
    isTemporary: 0
  - prefabSource: 0
    prefabTransform: {fileID: 310946488959022595, guid: d6caa89dc690d7f43af2398be21adb92,
      type: 3}
    gameObject: {fileID: 0}
    instancesToPreload: 1
    isExpanded: 1
    logMessages: 0
    allowInstantiateMore: 0
    enableNavMeshAgentOnSpawn: 0
    delayNavMeshEnableByFrames: 1
    itemHardLimit: 10
    allowRecycle: 0
    categoryName: Map
    isTemporary: 0
  logMessages: 0
  useTextFilter: 0
  textFilter: 
  autoAddMissingPoolItems: 0
  allowDespawningInactive: 0
  newCategoryName: Map
  addToCategoryName: Map
  newItemPrefabSource: 0
  framesForInit: 1
  autoCreatePools: 1
  _changes: 0
  _categories:
  - CatName: Platform
    IsExpanded: 0
    IsEditing: 0
    ProspectiveName: Platform
    IsTemporary: 0
  - CatName: Character
    IsExpanded: 0
    IsEditing: 0
    ProspectiveName: Character
    IsTemporary: 0
  - CatName: Item
    IsExpanded: 0
    IsEditing: 0
    ProspectiveName: Item
    IsTemporary: 0
  - CatName: Map
    IsExpanded: 0
    IsEditing: 0
    ProspectiveName: Map
    IsTemporary: 0
